Biostat 203B Homework 5
…
mimiciv_icu_cohort <- read_rds("mimiciv_shiny/mimic_icu_cohort.rds") %>%
  arrange(subject_id, hadm_id, stay_id) %>%
  mutate(los_long = as.factor(los_long),
         gender = as.factor(gender),
         respiratory_rate = as.numeric(respiratory_rate),
         non_invasive_blood_pressure_diatolic = as.numeric(non_invasive_blood_pressure_diatolic),
         temperature_f = as.numeric(temperature_f),
         non_invasive_blood_pressure_systolic = as.numeric(non_invasive_blood_pressure_systolic),
         heart_rate = as.numeric(heart_rate)) %>%
  select(-los, -dod, -discharge_location, -hospital_expire_flag)
     
print(mimiciv_icu_cohort)

# A tibble: 73,181 × 26
   subject_id  hadm_id  stay_id first_careunit admission_type admission_location
        <int>    <int>    <int> <fct>          <fct>          <fct>             
 1   10000032 29079034 39553978 Medical Inten… EW EMER.       EMERGENCY ROOM    
 2   10000980 26913865 39765666 Medical Inten… EW EMER.       EMERGENCY ROOM    
 3   10001217 24597018 37067082 Surgical Inte… EW EMER.       EMERGENCY ROOM    
 4   10001217 27703517 34592300 Surgical Inte… Other          PHYSICIAN REFERRAL
 5   10001725 25563031 31205490 Medical/Surgi… EW EMER.       Other             
 6   10001884 26184834 37510196 Medical Inten… OBSERVATION A… EMERGENCY ROOM    
 7   10002013 23581541 39060235 Cardiac Vascu… SURGICAL SAME… PHYSICIAN REFERRAL
 8   10002155 20345487 32358465 Medical Inten… EW EMER.       EMERGENCY ROOM    
 9   10002155 23822395 33685454 Other          EW EMER.       Other             
10   10002155 28994087 31090461 Medical/Surgi… EW EMER.       EMERGENCY ROOM    
# ℹ 73,171 more rows
# ℹ 20 more variables: insurance <chr>, language <chr>, marital_status <chr>,
#   race <fct>, gender <fct>, age_at_intime <int>, creatinine <dbl>,
#   sodium <dbl>, bicarbonate <dbl>, hematocrit <dbl>, glucose <dbl>,
#   wbc <dbl>, potassium <dbl>, chloride <dbl>,
#   non_invasive_blood_pressure_diatolic <dbl>, respiratory_rate <dbl>,
#   temperature_f <dbl>, heart_rate <dbl>, …
…
print(mimiciv_icu_cohort)

# A tibble: 73,181 × 23
   first_careunit           admission_type admission_location insurance language
   <fct>                    <fct>          <fct>              <chr>     <chr>   
 1 Medical Intensive Care … EW EMER.       EMERGENCY ROOM     Medicaid  ENGLISH 
 2 Medical Intensive Care … EW EMER.       EMERGENCY ROOM     Medicare  ENGLISH 
 3 Surgical Intensive Care… EW EMER.       EMERGENCY ROOM     Other     ?       
 4 Surgical Intensive Care… Other          PHYSICIAN REFERRAL Other     ?       
 5 Medical/Surgical Intens… EW EMER.       Other              Other     ENGLISH 
 6 Medical Intensive Care … OBSERVATION A… EMERGENCY ROOM     Medicare  ENGLISH 
 7 Cardiac Vascular Intens… SURGICAL SAME… PHYSICIAN REFERRAL Medicare  ENGLISH 
 8 Medical Intensive Care … EW EMER.       EMERGENCY ROOM     Other     ENGLISH 
 9 Other                    EW EMER.       Other              Other     ENGLISH 
10 Medical/Surgical Intens… EW EMER.       EMERGENCY ROOM     Other     ENGLISH 
# ℹ 73,171 more rows
# ℹ 18 more variables: marital_status <chr>, race <fct>, gender <fct>,
#   age_at_intime <int>, creatinine <dbl>, sodium <dbl>, bicarbonate <dbl>,
#   hematocrit <dbl>, glucose <dbl>, wbc <dbl>, potassium <dbl>,
#   chloride <dbl>, non_invasive_blood_pressure_diatolic <dbl>,
#   respiratory_rate <dbl>, temperature_f <dbl>, heart_rate <dbl>,
#   non_invasive_blood_pressure_systolic <dbl>, los_long <fct>
…
ℹ The workflow being saved contains a recipe, which is 5.53 Mb in ℹ memory. If
this was not intentional, please set the control setting ℹ `save_workflow =
FALSE`.

tree_fit %>%
  collect_metrics() %>%
  print(width = Inf) %>%
  filter(.metric == "roc_auc") %>%
  mutate(tree_depth = as.factor(tree_depth)) %>%
  ggplot(mapping = aes(x = cost_complexity, y = mean, color = tree_depth)) +
  geom_point() + 
  geom_line() + 
  labs(x = "cost_complexity", y = "CV ROC AUC", color = "tree_depth") 

# A tibble: 1,000 × 8
   cost_complexity tree_depth .metric  .estimator  mean     n std_err
             <dbl>      <int> <chr>    <chr>      <dbl> <int>   <dbl>
 1        1   e-10          1 accuracy binary     0.544     5 0.00373
 2        1   e-10          1 roc_auc  binary     0.535     5 0.00131
 3        1.23e-10          1 accuracy binary     0.544     5 0.00373
 4        1.23e-10          1 roc_auc  binary     0.535     5 0.00131
 5        1.52e-10          1 accuracy binary     0.544     5 0.00373
 6        1.52e-10          1 roc_auc  binary     0.535     5 0.00131
 7        1.87e-10          1 accuracy binary     0.544     5 0.00373
 8        1.87e-10          1 roc_auc  binary     0.535     5 0.00131
 9        2.31e-10          1 accuracy binary     0.544     5 0.00373
10        2.31e-10          1 roc_auc  binary     0.535     5 0.00131
   .config               
   <chr>                 
 1 Preprocessor1_Model001
 2 Preprocessor1_Model001
 3 Preprocessor1_Model002
 4 Preprocessor1_Model002
 5 Preprocessor1_Model003
 6 Preprocessor1_Model003
 7 Preprocessor1_Model004
 8 Preprocessor1_Model004
 9 Preprocessor1_Model005
10 Preprocessor1_Model005
# ℹ 990 more rows
…
ℹ The workflow being saved contains a recipe, which is 5.53 Mb in ℹ memory. If
this was not intentional, please set the control setting ℹ `save_workflow =
FALSE`.

rf_fit %>%
  collect_metrics() %>%
  print(width = Inf) %>%
  filter(.metric == "roc_auc") %>%
  mutate(mtry = as.factor(mtry)) %>%
  ggplot(mapping = aes(x = trees, y = mean, color = mtry)) +
  # geom_point() + 
  geom_line() + 
  labs(x = "Num. of Trees", y = "CV AUC")

# A tibble: 30 × 8
    mtry trees .metric  .estimator  mean     n  std_err .config              
   <int> <int> <chr>    <chr>      <dbl> <int>    <dbl> <chr>                
 1     1   100 accuracy binary     0.580     5 0.00406  Preprocessor1_Model01
 2     1   100 roc_auc  binary     0.626     5 0.00122  Preprocessor1_Model01
 3     3   100 accuracy binary     0.596     5 0.000845 Preprocessor1_Model02
 4     3   100 roc_auc  binary     0.634     5 0.00124  Preprocessor1_Model02
 5     5   100 accuracy binary     0.599     5 0.00136  Preprocessor1_Model03
 6     5   100 roc_auc  binary     0.634     5 0.00190  Preprocessor1_Model03
 7     1   150 accuracy binary     0.583     5 0.00468  Preprocessor1_Model04
 8     1   150 roc_auc  binary     0.628     5 0.00173  Preprocessor1_Model04
 9     3   150 accuracy binary     0.598     5 0.00115  Preprocessor1_Model05
10     3   150 roc_auc  binary     0.637     5 0.00170  Preprocessor1_Model05
# ℹ 20 more rows
…
gb_fit %>%
  collect_metrics() %>%
  print(width = Inf) %>%
  filter(.metric == "roc_auc") %>%
  mutate(tree_depth = as.factor(tree_depth)) %>%
  ggplot(mapping = aes(x = learn_rate, y = mean, color = tree_depth)) +
  geom_point() +
  geom_line() +
  labs(x = "Learning Rate", y = "CV AUC") +
  scale_x_log10()

# A tibble: 60 × 8
   tree_depth learn_rate .metric  .estimator  mean     n std_err
        <int>      <dbl> <chr>    <chr>      <dbl> <int>   <dbl>
 1          1  0.00001   accuracy binary     0.544     5 0.00373
 2          1  0.00001   roc_auc  binary     0.535     5 0.00131
 3          2  0.00001   accuracy binary     0.556     5 0.00454
 4          2  0.00001   roc_auc  binary     0.557     5 0.00202
 5          3  0.00001   accuracy binary     0.560     5 0.00393
 6          3  0.00001   roc_auc  binary     0.577     5 0.00174
 7          1  0.0000599 accuracy binary     0.544     5 0.00373
 8          1  0.0000599 roc_auc  binary     0.539     5 0.00462
 9          2  0.0000599 accuracy binary     0.560     5 0.00298
10          2  0.0000599 roc_auc  binary     0.561     5 0.00454
   .config              
   <chr>                
 1 Preprocessor1_Model01
 2 Preprocessor1_Model01
 3 Preprocessor1_Model02
 4 Preprocessor1_Model02
 5 Preprocessor1_Model03
 6 Preprocessor1_Model03
 7 Preprocessor1_Model04
 8 Preprocessor1_Model04
 9 Preprocessor1_Model05
10 Preprocessor1_Model05
# ℹ 50 more rows
…
roc_auc <- yardstick::roc_auc(
  data = mimic_auc,
  truth = los_long,
  contains( ".pred_FALSE")
)

mimic_acc <- mimiciv_test %>%
  bind_cols(
    predict(mimic_model_st, new_data = mimiciv_test)%>%
  print(width = Inf)
    )

# A tibble: 36,591 × 1
   .pred_class
   <fct>      
 1 FALSE      
 2 TRUE       
 3 FALSE      
 4 TRUE       
 5 FALSE      
 6 TRUE       
 7 TRUE       
 8 TRUE       
 9 TRUE       
10 TRUE       
# ℹ 36,581 more rows
…
